<?xml version="1.0" encoding="UTF-8"?>
<svg width="88px" height="90px" viewBox="0 0 88 90" version="1.1" xmlns="http://www.w3.org/2000/svg" xmlns:xlink="http://www.w3.org/1999/xlink">
    <!-- Generator: sketchtool 53.2 (72643) - https://sketchapp.com -->
    <title>55060E14-ED3B-482C-8B37-8A2B50104E8D</title>
    <desc>Created with sketchtool.</desc>
    <defs>
        <circle id="path-1" cx="25" cy="25" r="25"></circle>
        <filter x="-70.0%" y="-50.0%" width="240.0%" height="240.0%" filterUnits="objectBoundingBox" id="filter-2">
            <feOffset dx="0" dy="10" in="SourceAlpha" result="shadowOffsetOuter1"></feOffset>
            <feGaussianBlur stdDeviation="10" in="shadowOffsetOuter1" result="shadowBlurOuter1"></feGaussianBlur>
            <feColorMatrix values="0 0 0 0 0.8   0 0 0 0 0.815686275   0 0 0 0 0.882352941  0 0 0 0.5 0" type="matrix" in="shadowBlurOuter1"></feColorMatrix>
        </filter>
    </defs>
    <g id="Nuteck-Website" stroke="none" stroke-width="1" fill="none" fill-rule="evenodd">
        <g id="Nuteck-Home-page" transform="translate(-50.000000, -595.000000)">
            <g id="next-arrow-1" transform="translate(94.000000, 630.000000) scale(-1, 1) translate(-94.000000, -630.000000) translate(69.000000, 605.000000)">
                <g id="Oval-2">
                    <use fill="black" fill-opacity="1" filter="url(#filter-2)" xlink:href="#path-1"></use>
                    <use fill="#FFFFFF" fill-rule="evenodd" xlink:href="#path-1"></use>
                </g>
                <g id="right-arrow" transform="translate(12.000000, 16.000000)" fill="#18191C" fill-opacity="0.6" fill-rule="nonzero">
                    <path d="M16.5952174,0.788086957 C16.2594783,0.440608696 15.7006957,0.440608696 15.3532174,0.788086957 C15.0174783,1.12382609 15.0174783,1.6826087 15.3532174,2.01756522 L21.6508696,8.31521739 L0.869478261,8.31521739 C0.385043478,8.316 0,8.70104348 0,9.18547826 C0,9.66991304 0.385043478,10.0674783 0.869478261,10.0674783 L21.6508696,10.0674783 L15.3532174,16.3533913 C15.0174783,16.7008696 15.0174783,17.2604348 15.3532174,17.5953913 C15.7006957,17.9428696 16.2602609,17.9428696 16.5952174,17.5953913 L24.3837391,9.80686957 C24.7312174,9.47113043 24.7312174,8.91234783 24.3837391,8.5773913 L16.5952174,0.788086957 Z" id="Shape"></path>
                </g>
            </g>
        </g>
    </g>
</svg>