<?xml version="1.0" encoding="UTF-8"?>
<svg width="49px" height="49px" viewBox="0 0 49 49" version="1.1" xmlns="http://www.w3.org/2000/svg" xmlns:xlink="http://www.w3.org/1999/xlink">
    <!-- Generator: sketchtool 53.2 (72643) - https://sketchapp.com -->
    <title>3882515D-C74E-4071-BEB9-8611CF07CB1B</title>
    <desc>Created with sketchtool.</desc>
    <g id="Nuteck-Website" stroke="none" stroke-width="1" fill="none" fill-rule="evenodd">
        <g id="Nuteck-Case-studies" transform="translate(-953.000000, -485.000000)">
            <g id="client" transform="translate(909.000000, 485.000000)">
                <g id="product-icon" transform="translate(43.000000, 0.000000)">
                    <rect id="Rectangle" fill="#D8D8D8" opacity="0" x="0" y="0" width="50" height="50"></rect>
                    <g transform="translate(1.020408, 0.000000)">
                        <polygon id="Fill-1" fill="#FEFEFE" points="2.55102041 14.7959184 14.2857143 14.7959184 14.2857143 3.06122449 2.55102041 3.06122449"></polygon>
                        <polygon id="Stroke-2" stroke="#1A0F33" stroke-linecap="round" stroke-linejoin="round" points="2.55102041 14.7959184 14.2857143 14.7959184 14.2857143 3.06122449 2.55102041 3.06122449"></polygon>
                        <polygon id="Fill-4" fill-opacity="0.9" fill="#FEFEFE" points="18.3673469 14.7959184 30.1020408 14.7959184 30.1020408 3.06122449 18.3673469 3.06122449"></polygon>
                        <polygon id="Stroke-5" stroke="#1A0F33" stroke-linecap="round" stroke-linejoin="round" points="18.3673469 14.7959184 30.1020408 14.7959184 30.1020408 3.06122449 18.3673469 3.06122449"></polygon>
                        <polygon id="Fill-7" fill-opacity="0.9" fill="#FEFEFE" points="34.1836735 14.7959184 45.9183673 14.7959184 45.9183673 3.06122449 34.1836735 3.06122449"></polygon>
                        <polygon id="Stroke-8" stroke="#1A0F33" stroke-linecap="round" stroke-linejoin="round" points="34.1836735 14.7959184 45.9183673 14.7959184 45.9183673 3.06122449 34.1836735 3.06122449"></polygon>
                        <polygon id="Fill-10" fill-opacity="0.9" fill="#FEFEFE" points="34.1836735 30.6122449 45.9183673 30.6122449 45.9183673 18.877551 34.1836735 18.877551"></polygon>
                        <polygon id="Stroke-11" stroke="#1A0F33" stroke-linecap="round" stroke-linejoin="round" points="34.1836735 30.6122449 45.9183673 30.6122449 45.9183673 18.877551 34.1836735 18.877551"></polygon>
                        <polygon id="Fill-13" fill-opacity="0.9" fill="#FEFEFE" points="18.3673469 30.6122449 30.1020408 30.6122449 30.1020408 18.877551 18.3673469 18.877551"></polygon>
                        <polygon id="Stroke-14" stroke="#1A0F33" stroke-linecap="round" stroke-linejoin="round" points="18.3673469 30.6122449 30.1020408 30.6122449 30.1020408 18.877551 18.3673469 18.877551"></polygon>
                        <polygon id="Fill-15" fill-opacity="0.9" fill="#FEFEFE" points="2.55102041 30.6122449 14.2857143 30.6122449 14.2857143 18.877551 2.55102041 18.877551"></polygon>
                        <polygon id="Stroke-16" stroke="#1A0F33" stroke-linecap="round" stroke-linejoin="round" points="2.55102041 30.6122449 14.2857143 30.6122449 14.2857143 18.877551 2.55102041 18.877551"></polygon>
                        <polygon id="Fill-18" fill-opacity="0.9" fill="#FEFEFE" points="34.1836735 46.9387755 45.9183673 46.9387755 45.9183673 35.2040816 34.1836735 35.2040816"></polygon>
                        <polygon id="Stroke-19" stroke="#1A0F33" stroke-linecap="round" stroke-linejoin="round" points="34.1836735 46.9387755 45.9183673 46.9387755 45.9183673 35.2040816 34.1836735 35.2040816"></polygon>
                        <polygon id="Fill-21" fill-opacity="0.9" fill="#FEFEFE" points="18.3673469 46.9387755 30.1020408 46.9387755 30.1020408 35.2040816 18.3673469 35.2040816"></polygon>
                        <polygon id="Stroke-22" stroke="#1A0F33" stroke-linecap="round" stroke-linejoin="round" points="18.3673469 46.9387755 30.1020408 46.9387755 30.1020408 35.2040816 18.3673469 35.2040816"></polygon>
                        <polygon id="Fill-24" fill-opacity="0.9" fill="#FEFEFE" points="2.55102041 46.9387755 14.2857143 46.9387755 14.2857143 35.2040816 2.55102041 35.2040816"></polygon>
                        <polygon id="Stroke-25" stroke="#1A0F33" stroke-linecap="round" stroke-linejoin="round" points="2.2556391 46.724672 14.2496241 46.724672 14.2496241 34.7708455 2.2556391 34.7708455"></polygon>
                        <path d="M24.0064447,23.4693878 L24.3557465,24.5309129 C24.3690655,24.5711644 24.4068743,24.5981414 24.4489796,24.5981414 L25.5634801,24.5981414 L24.664232,25.2622905 C24.6307197,25.2871265 24.6165414,25.3303754 24.6285714,25.3701986 L24.9619764,26.432152 L24.0648765,25.770144 C24.0300752,25.7444515 23.9823845,25.7444515 23.9475832,25.770144 L23.0504834,26.432152 L23.3838883,25.3701986 C23.396348,25.3303754 23.3821697,25.2871265 23.3486574,25.2622905 L22.4489796,24.5981414 L23.5634801,24.5981414 C23.606015,24.5981414 23.6433942,24.5711644 23.6571429,24.5309129 L24.0064447,23.4693878 Z" id="Fill-27" fill="#1A0F33"></path>
                        <g id="dots" transform="translate(-0.000170, 0.505150)" fill-opacity="0.4">
                            <path d="M48.1733736,43.3749352 C48.1733736,45.9086708 46.1192121,47.9624064 43.5859024,47.9624064 C41.0517409,47.9624064 38.9980053,45.9086708 38.9980053,43.3749352 C38.9980053,40.8411996 41.0517409,38.7874641 43.5859024,38.7874641 C46.1192121,38.7874641 48.1733736,40.8411996 48.1733736,43.3749352" id="Fill-49" fill="#E65E25"></path>
                            <path d="M9.17536823,4.99415794 C9.17536823,7.52789352 7.12163265,9.5816291 4.58789707,9.5816291 C2.05416149,9.5816291 0,7.52789352 0,4.99415794 C0,2.46042236 2.05416149,0.406686779 4.58789707,0.406686779 C7.12163265,0.406686779 9.17536823,2.46042236 9.17536823,4.99415794" id="Fill-52" fill="#4DB763"></path>
                            <path d="M40.6123869,19.8895333 C40.6123869,20.3529228 40.2363088,20.7290009 39.7729193,20.7290009 C39.3091038,20.7290009 38.9334516,20.3529228 38.9334516,19.8895333 C38.9334516,19.4261437 39.3091038,19.0500657 39.7729193,19.0500657 C40.2363088,19.0500657 40.6123869,19.4261437 40.6123869,19.8895333" id="Fill-55" fill="#E65E25"></path>
                            <path d="M15.5902254,24.9740408 C15.5902254,25.4374303 15.2145732,25.8135084 14.7507578,25.8135084 C14.2873682,25.8135084 13.9117161,25.4374303 13.9117161,24.9740408 C13.9117161,24.5106513 14.2873682,24.1345732 14.7507578,24.1345732 C15.2145732,24.1345732 15.5902254,24.5106513 15.5902254,24.9740408" id="Fill-57" fill="#E65E25"></path>
                            <path d="M25.2675918,1.86498669 C25.2675918,2.33135759 24.8893842,2.70913931 24.4230133,2.70913931 C23.9566424,2.70913931 23.5784348,2.33135759 23.5784348,1.86498669 C23.5784348,1.39861579 23.9566424,1.02040816 24.4230133,1.02040816 C24.8893842,1.02040816 25.2675918,1.39861579 25.2675918,1.86498669" id="Fill-59" fill="#4DB763"></path>
                        </g>
                        <path d="M18.9240958,47.2026122 C18.9240958,47.6689831 18.5458882,48.0471908 18.0799432,48.0471908 C17.6135723,48.0471908 17.2353647,47.6689831 17.2353647,47.2026122 C17.2353647,46.7362413 17.6135723,46.3584596 18.0799432,46.3584596 C18.5458882,46.3584596 18.9240958,46.7362413 18.9240958,47.2026122" id="Fill-61" fill-opacity="0.4" fill="#8D65AA"></path>
                    </g>
                </g>
            </g>
        </g>
    </g>
</svg>